{
  "City": "Lisboa",
  "Streetname": "W main-99908",
  "Doornumber": "99908",
  "PostalCode":"99908",
  "Delivery_Instructions":"With extra cheese ",
  "firstname":"anvesh",
  "lastname":"aduri",
  "mailid":"anvesh@gmail.com",
  "mobileno":"9998884442",
  "Tax_ID": "135987458",
  "Tax_ID_CustomerName":"Anvesh",
  "checkout":"something"

}